\relax 
\select@language{english}
\@writefile{toc}{\select@language{english}}
\@writefile{lof}{\select@language{english}}
\@writefile{lot}{\select@language{english}}
\bibstyle{abbrv}
\bibdata{references}
\@writefile{lol}{\contentsline {lstlisting}{LExcluFilter.java}{2}}
\@writefile{lot}{\contentsline {table}{\numberline {0.1}{\ignorespaces Comparison of total runtime (ms) for four methods.}}{3}}
\newlabel{tbl:runtime}{{0.1}{3}}
\@writefile{lof}{\contentsline {figure}{\numberline {0.1}{\ignorespaces Comparison of total runtime for four methods.}}{3}}
\newlabel{fig:data}{{0.1}{3}}
